v 0 0 2
n -1 0 0
t 0 -1 0
x 0.0 2.0 0.0
v 0 0 2
n 0 -1 0
t 1 0 0
x 0.0 2.0 0.0
v 0 0 2
n 0 0 -1
t 1 0 0
x 0.0 0.0 0.0
v 0 0 2.5
n -1 0 0
t 0 -1 0
x 0.0 2.5 0.0
v 0 0 2.5
n 0 -1 0
t 1 0 0
x 0.0 2.5 0.0
v 0 0 2.5
n 0 0 1
t 1 0 0
x 0.0 0.0 0.0
v 0 25 2
n -1 0 0
t 0 -1 0
x -25.0 2.0 0.0
v 0 25 2
n 0 0 -1
t 1 0 0
x 0.0 25.0 0.0
v 0 25 2
n 0 1 0
t -1 0 0
x 0.0 2.0 0.0
v 0 25 2.5
n -1 0 0
t 0 -1 0
x -25.0 2.5 0.0
v 0 25 2.5
n 0 0 1
t 1 0 0
x 0.0 25.0 0.0
v 0 25 2.5
n 0 1 0
t -1 0 0
x 0.0 2.5 0.0
v 25 0 2
n 0 -1 0
t 1 0 0
x 25.0 2.0 0.0
v 25 0 2
n 0 0 -1
t 1 0 0
x 25.0 0.0 0.0
v 25 0 2
n 1 0 0
t 0 1 0
x 0.0 2.0 0.0
v 25 0 2.5
n 0 -1 0
t 1 0 0
x 25.0 2.5 0.0
v 25 0 2.5
n 0 0 1
t 1 0 0
x 25.0 0.0 0.0
v 25 0 2.5
n 1 0 0
t 0 1 0
x 0.0 2.5 0.0
v 25 25 2
n 0 0 -1
t 1 0 0
x 25.0 25.0 0.0
v 25 25 2
n 0 1 0
t -1 0 0
x -25.0 2.0 0.0
v 25 25 2
n 1 0 0
t 0 1 0
x 25.0 2.0 0.0
v 25 25 2.5
n 0 0 1
t 1 0 0
x 25.0 25.0 0.0
v 25 25 2.5
n 0 1 0
t -1 0 0
x -25.0 2.5 0.0
v 25 25 2.5
n 1 0 0
t 0 1 0
x 25.0 2.5 0.0
f 0 3 6
f 9 6 3
f 12 4 1
f 4 12 15
f 2 7 13
f 18 13 7
f 16 10 5
f 10 16 21
f 8 11 19
f 22 19 11
f 20 17 14
f 17 20 23
